<?xml version="1.0" encoding="utf-8"?>
<!-- Generator: Adobe Illustrator 19.0.0, SVG Export Plug-In . SVG Version: 6.00 Build 0)  -->
<svg version="1.1" id="Layer_1" xmlns="http://www.w3.org/2000/svg" xmlns:xlink="http://www.w3.org/1999/xlink" x="0px" y="0px"
	 width="40px" height="40px" viewBox="0 0 40 40" style="enable-background:new 0 0 40 40;" xml:space="preserve">
<style type="text/css">
	.st0{fill:#FFFFFF;}
</style>
<path id="XMLID_3_" class="st0" d="M10.6,40c-0.6,0-1.1-0.2-1.6-0.7c-0.9-0.9-0.9-2.3,0-3.2l16.2-16.2L9,3.7C8.2,2.8,8.2,1.4,9,0.5
	c0.9-0.9,2.3-0.9,3.2,0l17.8,17.8c0.9,0.9,0.9,2.3,0,3.2L12.2,39.3C11.8,39.8,11.2,40,10.6,40z"/>
</svg>
